{
	"info": {
		"_postman_id": "c0676ae3-9867-4d78-a6d2-22b632a6082e",
		"name": "CommunityHall",
		"schema": "https://schema.getpostman.com/json/collection/v2.1.0/collection.json"
	},
	"item": [
		{
			"name": "Booking [Residents]",
			"item": [
				{
					"name": "Booking",
					"request": {
						"method": "POST",
						"header": [
							{
								"key": "Content-Type",
								"name": "Content-Type",
								"value": "application/json",
								"type": "text"
							}
						],
						"body": {
							"mode": "raw",
							"raw": "[\n\t{\n\t\t\"flatNo\": \"101\",\n\t\t\"name\": \"xyz\",\n\t\t\"type\": \"hall\",\n\t\t\"startDate\": \"2021-02-13\",\n\t\t\"endDate\": \"2021-02-14\",\n\t\t\"quantity\": 1,\n\t\t\"reason\": \"xyz\"\n\t},\n\t{\n\t\t\"flatNo\": \"101\",\n\t\t\"name\": \"xyz\",\n\t\t\"type\": \"chari\",\n\t\t\"startDate\": \"2021-02-13\",\n\t\t\"endDate\": \"2021-02-14\",\n\t\t\"quantity\": 50,\n\t\t\"reason\": \"xyz\"\n\t}\n]"
						},
						"url": {
							"raw": "http://localhost/communityhall/booking",
							"protocol": "http",
							"host": [
								"localhost"
							],
							"path": [
								"communityhall",
								"booking"
							]
						}
					},
					"response": []
				},
				{
					"name": "Booking Status",
					"request": {
						"method": "GET",
						"header": [],
						"body": {
							"mode": "raw",
							"raw": ""
						},
						"url": {
							"raw": "http://localhost/communityhall/booking/1",
							"protocol": "http",
							"host": [
								"localhost"
							],
							"path": [
								"communityhall",
								"booking",
								"1"
							]
						}
					},
					"response": []
				},
				{
					"name": "Remove booking",
					"request": {
						"method": "DELETE",
						"header": [],
						"body": {
							"mode": "raw",
							"raw": ""
						},
						"url": {
							"raw": "http://localhost/communityhall/booking/1",
							"protocol": "http",
							"host": [
								"localhost"
							],
							"path": [
								"communityhall",
								"booking",
								"1"
							]
						}
					},
					"response": []
				}
			]
		},
		{
			"name": "Booking [Administrative]",
			"item": [
				{
					"name": "Approve booking",
					"request": {
						"method": "PUT",
						"header": [
							{
								"key": "Content-Type",
								"name": "Content-Type",
								"value": "application/json",
								"type": "text"
							}
						],
						"body": {
							"mode": "raw",
							"raw": "{\n\t\"bookingId\": \"1\",\n\t\"bookingStatus\": \"reserved\",\n\t\"paymentStatus\": \"paid\"\n}"
						},
						"url": {
							"raw": "http://localhost/communityhall/booking/1",
							"protocol": "http",
							"host": [
								"localhost"
							],
							"path": [
								"communityhall",
								"booking",
								"1"
							]
						}
					},
					"response": []
				},
				{
					"name": "Remove booking",
					"request": {
						"method": "DELETE",
						"header": [],
						"body": {
							"mode": "raw",
							"raw": ""
						},
						"url": {
							"raw": "http://localhost/communityhall/booking/1",
							"protocol": "http",
							"host": [
								"localhost"
							],
							"path": [
								"communityhall",
								"booking",
								"1"
							]
						}
					},
					"response": []
				}
			]
		},
		{
			"name": "Payment",
			"item": [
				{
					"name": "Manage Payment for booking",
					"request": {
						"method": "POST",
						"header": [
							{
								"key": "Content-Type",
								"name": "Content-Type",
								"type": "text",
								"value": "application/json"
							}
						],
						"body": {
							"mode": "raw",
							"raw": "{\n\t\"bookingId\": 1,\n\t\"amountPaid\": 1000,\n\t\"amountPaiddDate\": \"2021-02-05\",\n\t\"amountPaidMode\": \"CASH\",\n\t\"amountPending\": 500,\n\t\"refundedAmout\": 0,\n\t\"amountRefundDate\": \"null\",\n\t\"amountRefunMode\": \"null\",\n\t\"amountPaidForHouseCleaning\": 0,\n\t\"paymentMode\": \"CASH\"\n}"
						},
						"url": {
							"raw": "http://localhost/communityhall/payment",
							"protocol": "http",
							"host": [
								"localhost"
							],
							"path": [
								"communityhall",
								"payment"
							]
						}
					},
					"response": []
				}
			]
		}
	]
}